id,name,model_id:id,group_id:id,perm_read,perm_write,perm_create,perm_unlink
access_body_measurement,access.body.measurement,model_body_measurement,base.group_user,1,0,0,0
access_exercise_type,access.exercise.type,model_exercise_type,base.group_user,1,1,1,1
access_exercise_exercise,access.exercise.exercise,model_exercise_exercise,base.group_user,1,1,1,1
access_exercise_lines,access.exercise.lines,model_exercise_lines,base.group_user,1,1,1,1
access_gym_skills,access.gym.skills,model_gym_skills,base.group_user,1,1,1,1
access_food_item,access.food.item,model_food_item,base.group_user,1,1,1,1
access_exercise_videos,access.exercise.videos,model_exercise_videos,base.group_user,1,1,1,1
access_body_part,access.body.part,model_body_part,base.group_user,1,1,1,1
access_diet_plan,access.diet.plan,model_diet_plan,base.group_user,1,1,1,1
access_diet_plan_lines,access.diet.plan.lines,model_diet_plan_lines,base.group_user,1,1,1,1
access_pedo_meter,access.pedo.meter,model_pedo_meter,base.group_user,1,1,1,1
access_body_measurement_trainer,access.body.measurement.trainer,model_body_measurement,gym.group_gym_trainer,1,0,0,0
access_exercise_type_trainer,access.exercise.type.trainer,model_exercise_type,gym.group_gym_trainer,1,1,1,1
access_exercise_exercise_trainer,access.exercise.exercise.trainer,model_exercise_exercise,gym.group_gym_trainer,1,1,1,1
access_exercise_lines_trainer,access.exercise.lines.trainer,model_exercise_lines,gym.group_gym_trainer,1,1,1,1
access_gym_skills_trainer,access.gym.skills.trainer,model_gym_skills,gym.group_gym_trainer,1,1,1,1
access_food_item_trainer,access.food.item.trainer,model_food_item,gym.group_gym_trainer,1,1,1,1
access_exercise_videos_trainer,access.exercise.videos.trainer,model_exercise_videos,gym.group_gym_trainer,1,1,1,1
access_body_part_trainer,access.body.part.trainer,model_body_part,gym.group_gym_trainer,1,1,1,1
access_diet_plan_trainer,access.diet.plan.trainer,model_diet_plan,gym.group_gym_trainer,1,1,1,1
access_diet_plan_lines_trainer,access.diet.plan.lines.trainer,model_diet_plan_lines,gym.group_gym_trainer,1,1,1,1
access_pedo_meter_trainer,access.pedo.meter.trainer,model_pedo_meter,gym.group_gym_trainer,1,0,0,0
access_body_measurement_member,access.body.measurement.member,model_body_measurement,gym.group_gym_member,1,0,0,0
access_exercise_type_member,access.exercise.type.member,model_exercise_type,gym.group_gym_member,1,0,0,0
access_exercise_exercise_member,access.exercise.exercise.member,model_exercise_exercise,gym.group_gym_member,1,0,0,0
access_exercise_lines_member,access.exercise.lines.member,model_exercise_lines,gym.group_gym_member,1,0,0,0
access_gym_skills_member,access.gym.skills.member,model_gym_skills,gym.group_gym_member,1,0,0,0
access_food_item_member,access.food.item.member,model_food_item,gym.group_gym_member,1,0,0,0
access_body_part_member,access.body.part.member,model_body_part,gym.group_gym_member,1,0,0,0
access_diet_plan_member,access.diet.plan.member,model_diet_plan,gym.group_gym_member,1,0,0,0
access_diet_plan_lines_member,access.diet.plan.lines.member,model_diet_plan_lines,gym.group_gym_member,1,0,0,0
access_membership_member_member,access.membership.member.member,model_membership_membership_line,gym.group_gym_member,1,0,0,0
access_exercise_videos_member,access.exercise.videos.member,model_exercise_videos,gym.group_gym_member,1,0,0,0
access_pedo_meter_member,access.pedo.meter.member,model_pedo_meter,gym.group_gym_member,1,1,1,0
access_calendar_event_member,access.calendar.event.member,calendar.model_calendar_event,gym.group_gym_member,1,0,1,0
access_body_measurement_operator,Access.body.measurement.operator,model_body_measurement,gym.group_gym_operator,1,1,1,1
access_exercise_type_operator,access.exercise.type.operator,model_exercise_type,gym.group_gym_operator,1,1,1,1
access_exercise_exercise_operator,access.exercise.exercise.operator,model_exercise_exercise,gym.group_gym_operator,1,1,1,1
access_exercise_lines_operator,access.exercise.lines.operator,model_exercise_lines,gym.group_gym_operator,1,1,1,1
access_gym_skills_operator,access.gym.skills.operator,model_gym_skills,gym.group_gym_operator,1,1,1,1
access_food_item_operator,access.food.item.operator,model_food_item,gym.group_gym_operator,1,1,1,1
access_body_part_operator,access.body.part.operator,model_body_part,gym.group_gym_operator,1,1,1,1
access_diet_plan_operator,access.diet.plan.operator,model_diet_plan,gym.group_gym_operator,1,1,1,1
access_diet_plan_lines_operator,access.diet.plan.lines.operator,model_diet_plan_lines,gym.group_gym_operator,1,1,1,1
access_membership_member_operator,access.membership.member.operator,model_membership_membership_line,gym.group_gym_operator,1,1,1,1
access_exercise_videos_operator,access.exercise.videos.operator,model_exercise_videos,gym.group_gym_operator,1,1,1,1
access_pedo_meter_operator,access.pedo.meter.operator,model_pedo_meter,gym.group_gym_operator,1,1,1,1
access_body_measurement_manager,Access.body.measurement.manager,model_body_measurement,gym.group_gym_manager,1,1,1,1
access_exercise_type_manager,access.exercise.type.manager,model_exercise_type,gym.group_gym_manager,1,1,1,1
access_exercise_exercise_manager,access.exercise.exercise.manager,model_exercise_exercise,gym.group_gym_manager,1,1,1,1
access_exercise_lines_manager,access.exercise.lines.manager,model_exercise_lines,gym.group_gym_manager,1,1,1,1
access_gym_skills_manager,access.gym.skills.manager,model_gym_skills,gym.group_gym_manager,1,1,1,1
access_food_item_manager,access.food.item.manager,model_food_item,gym.group_gym_manager,1,1,1,1
access_body_part_manager,access.body.part.manager,model_body_part,gym.group_gym_manager,1,1,1,1
access_diet_plan_manager,access.diet.planmanager,model_diet_plan,gym.group_gym_manager,1,1,1,1
access_diet_plan_lines_manager,access.diet.plan.lines.manager,model_diet_plan_lines,gym.group_gym_manager,1,1,1,1
access_membership_member_manager,access.membership.member.manager,model_membership_membership_line,gym.group_gym_manager,1,1,1,1
access_exercise_videos_manager,access.exercise.videos.manager,model_exercise_videos,gym.group_gym_manager,1,1,1,1
access_pedo_meter_manager,access.pedo.meter.manager,model_pedo_meter,gym.group_gym_manager,1,1,1,1
access_resource_calendar_operator,access.resource.calendar.operator,resource.model_resource_calendar,gym.group_gym_operator,1,1,1,1
access_resource_calendar_attendance_operator,access.resource.calendar.attendance.operator,resource.model_resource_calendar_attendance,gym.group_gym_operator,1,1,1,1
access_res_users_operator,access.res.users.operator,base.model_res_users,gym.group_gym_operator,1,1,1,1
calendar.access_calendar_event_all_employee,calendar.event_all_employee,calendar.model_calendar_event,base.group_user,1,0,1,0
membership.access_membership_membership_line_partner_manager,membership.membership.line.partner.manager,membership.model_membership_membership_line,base.group_partner_manager,1,0,0,0
project.access_project_task,project.task,project.model_project_task,project.group_project_user,1,1,1,0
access_product_template_operator,access.product.template operator,product.model_product_template,gym.group_gym_operator,1,1,1,0
access_product_product_operator,access.product.product.operator,product.model_product_product,gym.group_gym_operator,1,1,1,0
access_repeat_repeat,access.repeat.repeat,model_repeat_repeat,base.group_user,1,1,1,1
access_hr_emp_group_gym_trainer,access.group_gym_trainer,model_hr_employee,gym.group_gym_trainer,1,1,0,0
access_project_document,access_project_document,model_project_document,base.group_user,1,1,1,1
access_project_document_case,access_project_document_case,model_project_document_case,base.group_user,1,1,1,1
access_project_document_category,access_project_document_category,model_project_document_category,base.group_user,1,1,1,1
access_project_document_group,access_project_document_group,model_project_document_group,base.group_user,1,1,1,1
access_project_document_name,access_project_document_name,model_project_document_name,base.group_user,1,1,1,1
access_project_document_opposite,access_project_document_opposite,model_project_document_opposite,base.group_user,1,1,1,1
access_project_document_other,access_project_document_other,model_project_document_other,base.group_user,1,1,1,1
access_res_partner_credit_card,access_res_partner_credit_card,model_res_partner_credit_card,base.group_user,1,1,1,1
access_res_partner_credit_card_type,access_res_partner_credit_card_type,model_res_partner_credit_card_type,base.group_user,1,1,1,1